<svg width="184" height="48" viewBox="0 0 184 48" fill="none" xmlns="http://www.w3.org/2000/svg">
<g clip-path="url(#clip0)">
<path d="M23.9982 48C10.769 48 0 37.2303 0 24C0 10.7697 10.769 0 23.9982 0C37.2275 0 47.9965 10.7697 47.9965 24C47.9965 37.2303 37.2275 48 23.9982 48ZM23.9982 3.30756C12.584 3.30756 3.30732 12.5849 3.30732 24C3.30732 35.4151 12.584 44.6924 23.9982 44.6924C35.4125 44.6924 44.6892 35.4151 44.6892 24C44.6892 12.5849 35.4125 3.30756 23.9982 3.30756Z" fill="white"/>
<path d="M32.0645 10.0839C27.4665 10.0436 23.5139 16.0134 22.2232 22.0638H18.7546V24.8873H21.7795C21.0939 28.0335 19.3999 30.7764 18.7949 31.5831C18.5126 31.8655 18.1496 32.3495 18.4722 31.4218C18.9562 28.8806 16.6976 27.1058 14.3582 27.1058C12.2206 27.1058 9.55859 28.7596 9.55859 31.9058C9.55859 35.052 12.3819 36.8671 14.8826 36.8671C16.8186 36.8671 18.0286 36.1411 18.7142 35.7377C19.3999 35.3344 20.3679 34.7293 21.4972 33.3982C23.3929 31.1797 24.7642 28.1142 25.2079 24.847H28.9992V22.0234H25.6919C26.1355 20.2083 27.1439 17.9092 27.9505 16.6587C28.1522 16.336 28.2732 16.215 28.2732 16.7394C28.2329 17.5461 29.4429 19.7646 32.0645 19.7646C34.6862 19.7646 36.9045 17.5865 36.9045 14.9243C36.9045 12.2621 34.7265 10.0839 32.0645 10.0839ZM12.9869 33.7209C12.0189 33.1562 11.6963 31.8655 12.3013 30.8167C12.9062 29.768 14.1969 29.405 15.1649 29.9697C16.1329 30.5344 16.4556 31.8251 15.8506 32.8739C15.2456 33.9226 13.9549 34.326 12.9869 33.7209ZM31.4998 16.7394C30.6125 16.215 30.2899 15.005 30.8545 14.0772C31.4192 13.1092 32.5888 12.7865 33.4762 13.3108C34.3635 13.8352 34.6862 15.0453 34.1215 15.973C33.5972 16.9411 32.3872 17.2638 31.4998 16.7394Z" fill="white"/>
<path d="M60.5817 22.9512H66.9141V26.1781H60.5817V34.6891H56.8711V14.521H70.181V17.9092H60.5817V22.9512Z" fill="white"/>
<path d="M82.6062 31.5024C80.8315 33.8822 78.5325 35.1326 75.6285 35.1326C71.8775 35.1326 68.4492 32.7528 68.4492 27.5091C68.4492 22.7091 71.3532 20.0066 75.3865 20.0066C79.1779 20.0066 80.7105 22.2654 81.0332 22.7091C82.2028 24.3629 82.4448 26.8637 82.4852 28.2755H71.9179C71.9582 30.5343 73.7329 32.0268 75.9915 32.0268C78.3309 32.0268 79.2585 30.4133 79.7022 29.8486L82.6062 31.5024ZM79.3392 25.7343C79.0165 23.5158 77.3225 22.5881 75.8302 22.5881C74.0152 22.5881 72.4422 23.7982 72.0389 25.7343H79.3392Z" fill="white"/>
<path d="M88.0897 17.9495V34.689H84.6211V17.9495H88.0897Z" fill="white"/>
<path d="M94.664 17.9495V34.689H91.1953V17.9495H94.664Z" fill="white"/>
<path d="M104.664 34.689C105.673 34.9713 106.842 35.1327 108.052 35.1327C111.763 35.1327 116.119 33.4385 116.119 28.7192C116.119 24.7259 113.013 23.4755 109.988 22.7898L107.972 22.3058C106.237 21.9427 104.422 21.6201 104.422 19.8453C104.422 18.1915 106.278 17.3041 108.133 17.3041C111.158 17.3041 112.448 19.1999 113.134 20.2486L115.917 18.0301C114.021 15.368 111.521 14.0369 108.335 14.0369C103.858 14.0369 100.833 16.5377 100.833 20.2486C100.833 23.3142 102.809 24.6049 104.019 25.1293C104.543 25.3713 110.271 26.7427 110.916 26.9848C111.601 27.2268 112.448 27.7915 112.448 29.0822C112.448 29.8486 112.166 30.857 110.755 31.4621C110.029 31.7848 109.262 31.8251 108.657 31.8251C104.705 31.8251 103.212 29.647 102.688 28.7999L99.8242 30.9377C101.115 33.1965 103.172 34.2049 104.664 34.689Z" fill="white"/>
<path d="M133.181 20.4099H136.61L132.496 34.6889H129.229L126.768 25.5729L124.106 34.6889H120.88L116.887 20.4099H120.315L122.695 30.1713L125.236 20.4099H128.18L130.721 30.1713L133.181 20.4099Z" fill="white"/>
<path d="M144.312 35.1326C139.835 35.1326 136.891 31.8654 136.891 27.5091C136.891 23.1528 139.916 20.0066 144.191 20.0066C148.144 20.0066 151.572 22.7898 151.572 27.5091C151.572 31.9461 148.628 35.1326 144.312 35.1326ZM144.151 23.0721C142.013 23.0721 140.48 24.8066 140.48 27.4284C140.48 30.373 142.295 31.9864 144.352 31.9864C146.853 31.9864 148.103 29.8083 148.023 27.4284C147.902 25.0889 146.53 23.0721 144.151 23.0721Z" fill="white"/>
<path d="M160.769 35.1326C156.292 35.1326 153.348 31.8654 153.348 27.5091C153.348 23.1528 156.373 20.0066 160.648 20.0066C164.601 20.0066 168.029 22.7898 168.029 27.5091C168.029 31.9461 165.085 35.1326 160.769 35.1326ZM160.567 23.0721C158.43 23.0721 156.897 24.8066 156.897 27.4284C156.897 30.373 158.712 31.9864 160.769 31.9864C163.27 31.9864 164.52 29.8083 164.439 27.4284C164.359 25.0889 162.987 23.0721 160.567 23.0721Z" fill="white"/>
<path d="M170.207 20.41H173.595V21.741C174.119 21.1763 175.289 20.0066 177.507 20.0066C181.702 20.0066 184.001 23.7982 184.001 27.7108C184.001 31.9864 181.339 35.1326 177.507 35.1326C175.531 35.1326 174.321 34.2049 173.595 33.5192V40.5377H170.207V20.41ZM177.064 31.9058C178.717 31.9058 180.532 30.7763 180.532 27.5494C180.532 23.9595 178.032 23.2738 177.023 23.2738C175.45 23.2738 173.635 24.4032 173.595 27.4688C173.514 30.4133 175.168 31.9058 177.064 31.9058Z" fill="white"/>
</g>
<defs>
<clipPath id="clip0">
<rect width="184" height="48" fill="white"/>
</clipPath>
</defs>
</svg>
